…
# 7.Count the number of titles by genre for each age rating

``` r
  genre_age_rating <- data %>%
  separate_rows(genre, sep = ",") %>%
  group_by(age_rating, genre) %>%
  summarize(Count = n(), .groups = 'drop') %>%  
  arrange(age_rating, desc(Count))
  
  # Display the summarized data
  print(genre_age_rating)
```

    ## # A tibble: 144 × 3
    ##    age_rating genre          Count
    ##    <chr>      <chr>          <int>
    ##  1 A          Drama            109
    ##  2 A          Comedy            55
    ##  3 A          Standup Comedy    34
    ##  4 A          Thriller          29
    ##  5 A          Action            27
    ##  6 A          Horror            23
    ##  7 A          Crime             14
    ##  8 A          Documentary       11
    ##  9 A          Romance           10
    ## 10 A          Biopic             6
    ## # ℹ 134 more rows
…
